Handling incidence objects • incidence2
…
# select returns a tibble unless all date, count and group variables are preserved
inci %>% select(-1)
#> # A tibble: 601 × 3
#>    hospital                                     gender count
#>    <fct>                                        <fct>  <int>
#>  1 Military Hospital                            f          1
#>  2 Connaught Hospital                           m          1
#>  3 NA                                           f          2
#>  4 other                                        f          2
#>  5 other                                        m          1
#>  6 NA                                           f          1
#>  7 Connaught Hospital                           f          1
#>  8 Princess Christian Maternity Hospital (PCMH) f          1
#>  9 Rokupa Hospital                              f          1
#> 10 NA                                           f          1
#> # … with 591 more rows
…
