Estimate the peak date of an incidence curve using bootstrap — estimate_peak • incidence2
…
#> 
#>   bin_date   count
#>   <date>     <int>
#> 1 2013-04-03     7
#> 
#> 
#> $estimated
#> [1] 10.28
#> 
#> $ci
#>         2.5%        97.5% 
#> "2013-03-29" "2013-04-14" 
#> 
#> $peaks
#> # A tibble: 100 x 2
#>    bin_date   count
#>    <date>     <int>
#>  1 2013-04-03    11
#>  2 2013-03-29    10
#>  3 2013-04-06     9
#>  4 2013-04-11    11
#>  5 2013-04-03     9
#>  6 2013-03-29    12
#>  7 2013-04-08    10
#>  8 2013-04-01    10
#>  9 2013-04-03     9
#> 10 2013-04-06     9
#> # … with 90 more rows
…
