An introduction to incidence2
…
            data |>
                ciTools::add_ci(
                    model,
                    alpha = 0.05,
                    names = c("lower_ci", "upper_ci")
                ) |>
                as_tibble()
        },
        data,
        model
    )) |>
    select(hospital, result) |>
    unnest(result))

#> # A tibble: 100 × 6
#>    hospital           date_index count  pred lower_ci upper_ci
#>    <fct>              <isowk>    <int> <dbl>    <dbl>    <dbl>
#>  1 Connaught Hospital 2014-W15       0 0.968    0.599     1.56
#>  2 Connaught Hospital 2014-W16       1 1.18     0.751     1.85
#>  3 Connaught Hospital 2014-W17       0 1.44     0.942     2.19
#>  4 Connaught Hospital 2014-W18       1 1.75     1.18      2.58
#>  5 Connaught Hospital 2014-W19       3 2.13     1.48      3.06
#>  6 Connaught Hospital 2014-W20       2 2.59     1.86      3.61
#>  7 Connaught Hospital 2014-W21       5 3.16     2.33      4.28
#>  8 Connaught Hospital 2014-W22       4 3.84     2.91      5.07
#>  9 Connaught Hospital 2014-W23       6 4.68     3.65      6.00
#> 10 Connaught Hospital 2014-W24       6 5.70     4.56      7.12
#> # ℹ 90 more rows
…
